<svg width="151" height="150" viewBox="0 0 151 150" fill="none" xmlns="http://www.w3.org/2000/svg">
<g opacity="0.6">
<path d="M43.3466 65.4677V61.3548C33.1406 61.3548 24.8385 53.0527 24.8385 42.8468H20.7256C20.7256 55.319 30.8743 65.4677 43.3466 65.4677Z" fill="#1A535C"/>
<path d="M43.3468 57.242C51.2824 57.242 57.742 50.7824 57.742 42.8468C57.742 34.9112 51.2824 28.4516 43.3468 28.4516C35.4112 28.4516 28.9517 34.9112 28.9517 42.8468C28.9517 50.7824 35.4112 57.242 43.3468 57.242ZM43.3468 32.5645C49.0161 32.5645 53.6291 37.1775 53.6291 42.8468C53.6291 48.5161 49.0161 53.1291 43.3468 53.1291C37.6775 53.1291 33.0646 48.5161 33.0646 42.8468C33.0646 37.1775 37.6775 32.5645 43.3468 32.5645Z" fill="#1A535C"/>
<path d="M43.3466 49.0161C46.7476 49.0161 49.516 46.2478 49.516 42.8468C49.516 39.4458 46.7476 36.6774 43.3466 36.6774C39.9456 36.6774 37.1772 39.4458 37.1772 42.8468C37.1772 46.2478 39.9456 49.0161 43.3466 49.0161ZM43.3466 40.7903C44.4813 40.7903 45.4031 41.7121 45.4031 42.8468C45.4031 43.9814 44.4813 44.9032 43.3466 44.9032C42.2119 44.9032 41.2901 43.9814 41.2901 42.8468C41.2901 41.7121 42.2119 40.7903 43.3466 40.7903Z" fill="#1A535C"/>
<path d="M140 110.113V94.8545L134.435 92.9135C133.811 90.8611 132.993 88.883 131.992 87.0073L134.555 81.7055L132.568 79.7193C131.649 78.5113 130.139 76.9178 128.998 75.7641C127.577 74.3272 125.938 72.7677 124.826 71.7937L111.143 59.8286L112.318 56.3061L117.079 58.6879L124.992 50.7744L122.611 46.0138L127.661 44.3299V33.1399L122.611 31.458L124.992 26.6974L117.079 18.7839L112.318 21.1657L110.636 16.1129H99.4463L97.7644 21.1637L93.0039 18.7819L85.0903 26.6954L87.4721 31.456L82.4193 33.1379V34.7073L65.4928 19.9055C59.6668 14.8075 52.1961 12 44.4533 12V12.0552C44.0828 12.0432 43.7213 12 43.3468 12C26.3379 12 12.5 25.8379 12.5 42.8468C12.5 43.2213 12.5432 43.5828 12.5552 43.9533H12.5C12.5 51.6961 15.3075 59.1648 20.4055 64.9908L35.2174 81.9193H33.6379L31.956 86.9701L27.1954 84.5883L19.2819 92.5018L21.6637 97.2624L16.6129 98.9443V110.134L21.6637 111.816L19.2819 116.577L27.1954 124.49L31.956 122.109L33.6379 127.161H44.8279L46.5098 122.111L51.2703 124.492L59.1839 116.579L56.8021 111.818L60.3476 110.637L72.2847 124.28C73.2205 125.348 74.6233 126.834 75.9437 128.164C77.1939 129.422 78.9149 131.078 80.2063 132.063L82.1994 134.057L87.5012 131.494C89.3759 132.493 91.3551 133.313 93.4065 133.937L95.3545 139.5H110.613L112.554 133.935C114.607 133.311 116.585 132.493 118.46 131.492L123.762 134.055L134.555 123.262L131.992 117.96C132.991 116.085 133.811 114.107 134.435 112.054L140 110.113ZM73.9757 87.0073C72.9765 88.883 72.1572 90.8611 71.5326 92.9135L65.9677 94.8545V110.113L71.5326 112.054C72.1572 114.107 72.9745 116.085 73.9757 117.96L73.3521 119.25L31.3655 71.2706C35.0507 72.83 39.1003 73.6935 43.3468 73.6935C60.3557 73.6935 74.1935 59.8557 74.1935 42.8468C74.1935 38.5963 73.33 34.5447 71.7686 30.8575L119.777 72.84L118.462 73.4757C116.588 72.4765 114.609 71.6572 112.556 71.0326L110.613 65.4677H95.3545L93.4135 71.0326C91.3611 71.6572 89.383 72.4745 87.5073 73.4757L82.2055 70.9131L71.4131 81.7055L73.9757 87.0073ZM86.5323 36.1041L91.2537 34.5306L91.5991 33.6199C91.7005 33.3538 91.8049 33.0967 91.9164 32.8417L92.315 31.952L90.0919 27.5057L93.8122 23.7854L98.2584 26.0086L99.1481 25.6099C99.4032 25.4965 99.6602 25.394 99.9263 25.2926L100.837 24.9472L102.411 20.2258H107.672L109.246 24.9472L110.156 25.2926C110.422 25.394 110.679 25.4985 110.935 25.6099L111.824 26.0086L116.27 23.7854L119.991 27.5057L117.768 31.952L118.166 32.8417C118.28 33.0967 118.382 33.3538 118.484 33.6199L118.829 34.5306L123.548 36.1041V41.3657L118.827 42.9392L118.482 43.8499C118.38 44.116 118.276 44.373 118.164 44.6281L117.766 45.5177L119.989 49.964L116.268 53.6843L111.822 51.4612L110.933 51.8598C110.677 51.9733 110.42 52.0757 110.154 52.1771L109.244 52.5225L107.788 56.8945L86.5323 38.3041V36.1041ZM43.3468 16.1129C58.0874 16.1129 70.0806 28.1062 70.0806 42.8468C70.0806 57.5874 58.0874 69.5806 43.3468 69.5806C28.6062 69.5806 16.6129 57.5874 16.6129 42.8468C16.6129 28.1062 28.6062 16.1129 43.3468 16.1129ZM53.0205 108.744L52.6751 109.654C52.5737 109.92 52.4693 110.177 52.3578 110.433L51.9592 111.322L54.1823 115.768L50.462 119.489L46.0157 117.266L45.1261 117.664C44.871 117.778 44.614 117.88 44.3479 117.982L43.4371 118.327L41.8637 123.048H36.6021L35.0286 118.327L34.1178 117.982C33.8518 117.88 33.5947 117.776 33.3396 117.664L32.45 117.266L28.0057 119.489L24.2854 115.768L26.5086 111.322L26.1099 110.433C25.9965 110.177 25.894 109.92 25.7926 109.654L25.4472 108.744L20.7258 107.17V101.909L25.4472 100.335L25.7926 99.4243C25.894 99.1582 25.9985 98.9011 26.1099 98.6461L26.5086 97.7564L24.2854 93.3122L28.0057 89.5919L32.452 91.815L33.3417 91.4164C33.5967 91.3029 33.8538 91.2005 34.1199 91.0991L35.0306 90.7537L36.6041 86.0323H38.8182L57.4126 107.282L53.0205 108.744ZM131.046 108.881L130.764 109.932C130.11 112.376 129.146 114.707 127.898 116.865L127.351 117.809L129.578 122.419L122.919 129.078L118.309 126.851L117.365 127.398C115.207 128.644 112.874 129.608 110.432 130.264L109.381 130.546L107.693 135.387H98.2745L96.5866 130.546L95.5353 130.264C93.0922 129.61 90.7606 128.646 88.6028 127.398L87.6589 126.851L83.0489 129.078L76.3896 122.419L78.6167 117.809L78.0695 116.865C76.8234 114.707 75.8594 112.374 75.2037 109.932L74.9215 108.881L70.0806 107.193V97.7745L74.9215 96.0866L75.2037 95.0353C75.8574 92.5922 76.8214 90.2606 78.0695 88.1028L78.6167 87.1589L76.3896 82.5489L83.0489 75.8896L87.6589 78.1167L88.6028 77.5695C90.7606 76.3234 93.0942 75.3594 95.5353 74.7037L96.5866 74.4215L98.2745 69.5806H107.693L109.381 74.4215L110.432 74.7037C112.876 75.3574 115.207 76.3214 117.365 77.5695L118.309 78.1167L122.919 75.8896L129.578 82.5489L127.351 87.1589L127.898 88.1028C129.144 90.2606 130.108 92.5942 130.764 95.0353L131.046 96.0866L135.887 97.7745V107.193L131.046 108.881Z" fill="#1A535C"/>
<path d="M102.984 81.9194C91.6443 81.9194 82.4194 91.1443 82.4194 102.484C82.4194 113.823 91.6443 123.048 102.984 123.048C114.324 123.048 123.548 113.823 123.548 102.484C123.548 91.1443 114.324 81.9194 102.984 81.9194ZM102.984 118.935C93.9127 118.935 86.5323 111.555 86.5323 102.484C86.5323 93.4126 93.9127 86.0323 102.984 86.0323C112.055 86.0323 119.436 93.4126 119.436 102.484C119.436 111.555 112.055 118.935 102.984 118.935Z" fill="#1A535C"/>
<path d="M102.984 90.1452C96.1788 90.1452 90.645 95.6789 90.645 102.484C90.645 109.289 96.1788 114.823 102.984 114.823C109.789 114.823 115.322 109.289 115.322 102.484C115.322 95.6789 109.789 90.1452 102.984 90.1452ZM102.984 110.71C98.4471 110.71 94.7579 107.021 94.7579 102.484C94.7579 97.9472 98.4471 94.2581 102.984 94.2581C107.52 94.2581 111.21 97.9472 111.21 102.484C111.21 107.021 107.52 110.71 102.984 110.71Z" fill="#1A535C"/>
<path d="M115.322 38.7339C115.322 33.0646 110.709 28.4516 105.04 28.4516C99.3708 28.4516 94.7578 33.0646 94.7578 38.7339C94.7578 44.4032 99.3708 49.0161 105.04 49.0161C110.709 49.0161 115.322 44.4032 115.322 38.7339ZM98.8707 38.7339C98.8707 35.3329 101.639 32.5645 105.04 32.5645C108.441 32.5645 111.209 35.3329 111.209 38.7339C111.209 42.1349 108.441 44.9032 105.04 44.9032C101.639 44.9032 98.8707 42.1349 98.8707 38.7339Z" fill="#1A535C"/>
<path d="M28.9517 104.54C28.9517 110.21 33.5646 114.823 39.2339 114.823C44.9032 114.823 49.5162 110.21 49.5162 104.54C49.5162 98.871 44.9032 94.2581 39.2339 94.2581C33.5646 94.2581 28.9517 98.871 28.9517 104.54ZM45.4033 104.54C45.4033 107.941 42.6349 110.71 39.2339 110.71C35.8329 110.71 33.0646 107.941 33.0646 104.54C33.0646 101.139 35.8329 98.371 39.2339 98.371C42.6349 98.371 45.4033 101.139 45.4033 104.54Z" fill="#1A535C"/>
</g>
</svg>
