<svg width="150" height="150" viewBox="0 0 150 150" fill="none" xmlns="http://www.w3.org/2000/svg">
<g opacity="0.6">
<path d="M66.6892 112.857C66.2821 112.858 65.8883 112.712 65.5802 112.446L42.1875 92.3577C41.9287 92.1348 41.7426 91.8394 41.653 91.5097C41.5635 91.18 41.5748 90.8311 41.6853 90.5078C45.9124 78.2513 54.9622 63.4789 66.5369 50.0133C89.3001 23.5048 122.045 19.6617 123.427 19.514C123.658 19.4833 123.894 19.5032 124.117 19.5723C124.34 19.6413 124.546 19.7579 124.72 19.914C124.897 20.0659 125.041 20.2526 125.143 20.4625C125.245 20.6725 125.303 20.9012 125.313 21.1344C125.372 22.523 126.522 55.4677 103.761 81.9762C92.1954 95.4418 78.9707 106.626 67.4824 112.657C67.2382 112.788 66.966 112.856 66.6892 112.857ZM45.2943 90.5237L66.9142 109.091C77.8003 103.132 90.2228 92.5009 101.173 79.7512C120.036 57.7972 121.795 30.5387 121.915 23.1775C114.654 24.4139 87.9501 30.3046 69.1232 52.2246C58.1667 64.9902 49.5373 78.874 45.2943 90.5237Z" fill="#1A535C"/>
<path d="M62.1234 118.175C61.7163 118.176 61.3226 118.03 61.0144 117.764L37.6195 97.6736C37.4492 97.5283 37.3094 97.3507 37.208 97.1512C37.1065 96.9516 37.0455 96.734 37.0284 96.5108C37.0113 96.2876 37.0385 96.0632 37.1083 95.8505C37.1781 95.6378 37.2893 95.441 37.4354 95.2714L42.0035 89.9534C42.2981 89.6111 42.7163 89.3996 43.1666 89.3651C43.6168 89.3306 44.0624 89.4759 44.4057 89.7693L67.7983 109.86C67.9683 110.005 68.1079 110.183 68.2092 110.382C68.3104 110.582 68.3713 110.8 68.3884 111.023C68.4055 111.246 68.3785 111.47 68.3088 111.683C68.2391 111.895 68.1282 112.092 67.9824 112.262L63.4189 117.58C63.1236 117.923 62.7044 118.136 62.253 118.171L62.1234 118.175ZM41.133 96.2055L61.9416 114.073L64.287 111.346L43.4784 93.4783L41.133 96.2055Z" fill="#1A535C"/>
<path d="M103.647 54.32C101.395 54.3176 99.2114 53.5454 97.4585 52.1314C95.7055 50.7175 94.4885 48.7468 94.0093 46.5462C93.5301 44.3457 93.8176 42.0474 94.824 40.0326C95.8304 38.0178 97.4953 36.4076 99.5425 35.469C101.59 34.5304 103.896 34.3197 106.08 34.8721C108.263 35.4244 110.192 36.7064 111.547 38.5056C112.901 40.3048 113.6 42.513 113.528 44.764C113.455 47.0149 112.615 49.1734 111.147 50.8815C110.219 51.9617 109.068 52.8282 107.774 53.4218C106.479 54.0153 105.071 54.3217 103.647 54.32ZM103.659 37.9727C102.573 37.9709 101.503 38.2425 100.55 38.7624C99.5963 39.2822 98.7889 40.0337 98.202 40.9475C97.6151 41.8614 97.2676 42.9082 97.1915 43.9916C97.1154 45.075 97.3131 46.1602 97.7664 47.1471C98.2198 48.134 98.9142 48.991 99.7857 49.6391C100.657 50.2872 101.678 50.7056 102.753 50.8557C103.829 51.0058 104.925 50.8829 105.941 50.4982C106.957 50.1134 107.859 49.4793 108.565 48.6543C109.371 47.715 109.89 46.5645 110.061 45.3392C110.232 44.114 110.049 42.8653 109.532 41.7411C109.016 40.6169 108.187 39.6644 107.146 38.9965C106.105 38.3286 104.894 37.9733 103.656 37.9727H103.659Z" fill="#1A535C"/>
<path d="M80.721 126.993C80.4187 126.993 80.1219 126.912 79.8611 126.759C79.6002 126.606 79.3847 126.387 79.2365 126.123C79.0883 125.86 79.0128 125.561 79.0177 125.259C79.0225 124.957 79.1076 124.661 79.2642 124.402C81.3437 121.283 82.4102 117.598 82.3183 113.85C82.2263 110.102 80.9805 106.474 78.7506 103.46C78.464 103.11 78.328 102.661 78.3726 102.211C78.4171 101.761 78.6385 101.348 78.9881 101.061C79.3377 100.774 79.7868 100.638 80.2367 100.683C80.6866 100.727 81.1003 100.949 81.3869 101.298C83.5054 104.026 84.9104 107.239 85.4746 110.647C86.0389 114.054 85.7447 117.549 84.6187 120.814C86.48 119.45 88.3731 117.973 89.4458 117.046C97.8979 109.773 99.6615 97.8235 93.3798 90.4283C93.2302 90.2584 93.1159 90.0603 93.0437 89.8458C92.9714 89.6313 92.9426 89.4045 92.959 89.1787C92.9753 88.9529 93.0365 88.7326 93.1389 88.5307C93.2413 88.3288 93.3829 88.1493 93.5555 88.0028C93.728 87.8562 93.928 87.7455 94.1438 87.677C94.3596 87.6086 94.5869 87.5838 94.8123 87.6042C95.0378 87.6246 95.257 87.6896 95.457 87.7956C95.6571 87.9016 95.834 88.0464 95.9775 88.2215C103.477 97.0372 101.536 111.126 91.6708 119.63C88.4939 122.382 85.046 124.804 81.3801 126.859C81.1717 126.948 80.9475 126.994 80.721 126.993Z" fill="#1A535C"/>
<path d="M27.2038 81.0308C26.9447 81.031 26.689 80.9721 26.4561 80.8586C26.2233 80.745 26.0194 80.5798 25.86 80.3755C25.7007 80.1712 25.5901 79.9333 25.5366 79.6797C25.4832 79.4262 25.4883 79.1639 25.5516 78.9126C27.0279 74.9766 28.9028 71.2017 31.1469 67.647C38.0604 56.6132 51.6919 52.5746 61.5394 58.6472C61.73 58.7648 61.8955 58.9188 62.0266 59.1003C62.1576 59.2819 62.2516 59.4875 62.3032 59.7054C62.3548 59.9233 62.363 60.1492 62.3273 60.3703C62.2916 60.5913 62.2127 60.8032 62.0951 60.9937C61.9775 61.1843 61.8235 61.3498 61.6419 61.4809C61.4604 61.612 61.2548 61.706 61.0369 61.7576C60.819 61.8092 60.5931 61.8173 60.372 61.7816C60.1509 61.7459 59.9391 61.667 59.7485 61.5494C51.4919 56.4495 39.9535 59.9994 34.0332 69.4583C33.2696 70.6765 32.0901 72.7651 31.0446 74.7946C34.1014 73.1894 37.5101 72.3716 40.9624 72.4153C44.4148 72.4589 47.8017 73.3626 50.8169 75.0445C51.206 75.2748 51.4877 75.6502 51.6 76.0881C51.7123 76.526 51.646 76.9906 51.4158 77.3797C51.1855 77.7688 50.8101 78.0505 50.3722 78.1628C49.9343 78.2751 49.4697 78.2088 49.0806 77.9786C45.7645 76.2291 41.9894 75.5452 38.2702 76.0203C34.5511 76.4953 31.0691 78.1062 28.2993 80.6331C27.9923 80.8904 27.6044 81.0312 27.2038 81.0308Z" fill="#1A535C"/>
<path d="M29.9268 132C29.5227 131.999 29.1325 131.853 28.8268 131.589C28.6232 131.414 28.4636 131.194 28.3609 130.946C28.2583 130.698 28.2155 130.429 28.2359 130.161C28.4155 127.889 30.1314 107.723 34.979 102.083C36.7507 100.026 39.0618 98.5051 41.6515 97.6917C41.9284 97.6072 42.222 97.5934 42.5055 97.6518C42.789 97.7102 43.0533 97.8388 43.2742 98.0258L59.8193 112.237C60.0391 112.425 60.2073 112.667 60.3079 112.938C60.4085 113.21 60.4382 113.503 60.3943 113.789C59.9835 116.472 58.8302 118.986 57.0648 121.048C52.2081 126.691 32.5449 131.432 30.3154 131.955C30.188 131.984 30.0577 132 29.9268 132ZM41.797 101.26C40.1621 101.922 38.709 102.966 37.5585 104.303C34.4563 107.912 32.5586 121.034 31.8427 128.066C38.6857 126.296 51.3718 122.434 54.4672 118.828C55.6168 117.489 56.4296 115.895 56.8376 114.178L41.797 101.26Z" fill="#1A535C"/>
<path d="M41.0444 119.055C40.8138 119.054 40.5857 119.007 40.3738 118.916C40.1619 118.825 39.9706 118.692 39.8115 118.526C39.6524 118.359 39.5288 118.161 39.4481 117.945C39.3675 117.729 39.3314 117.499 39.3422 117.269C39.4263 115.516 39.9649 106.635 42.4148 103.782C43.365 102.681 44.6039 101.867 45.992 101.433C46.2686 101.347 46.5623 101.333 46.8459 101.391C47.1295 101.449 47.3939 101.577 47.6147 101.764L55.46 108.505C55.6793 108.694 55.8471 108.936 55.9476 109.207C56.0482 109.479 56.0782 109.771 56.035 110.057C55.8157 111.496 55.1976 112.843 54.2509 113.948C51.7987 116.803 43.0989 118.678 41.3808 119.025C41.2699 119.046 41.1572 119.056 41.0444 119.055ZM46.1943 105.035C45.743 105.284 45.3397 105.612 45.0034 106.003C43.9784 107.196 43.2398 111.525 42.9057 115.182C46.4693 114.3 50.6328 112.91 51.6623 111.723C51.9977 111.332 52.2616 110.885 52.4419 110.403L46.1943 105.035Z" fill="#1A535C"/>
<path d="M58.519 84.5375C58.1927 84.5383 57.8731 84.4452 57.5982 84.2694C57.3234 84.0937 57.1048 83.8426 56.9685 83.5462C56.8323 83.2497 56.7841 82.9204 56.8297 82.5973C56.8753 82.2742 57.0128 81.9711 57.2258 81.724L66.9688 70.3811C67.2639 70.0413 67.6815 69.832 68.1303 69.799C68.5792 69.7659 69.0229 69.9117 69.3646 70.2046C69.7064 70.4974 69.9185 70.9135 69.9546 71.3622C69.9907 71.8108 69.8479 72.2555 69.5574 72.5992L59.8144 83.933C59.655 84.1214 59.4567 84.2731 59.233 84.3774C59.0094 84.4818 58.7658 84.5364 58.519 84.5375Z" fill="#1A535C"/>
<path d="M61.7163 94.9827C61.3903 94.9829 61.071 94.8896 60.7964 94.7138C60.5218 94.538 60.3033 94.2872 60.167 93.991C60.0306 93.6949 59.9821 93.3658 60.0271 93.0429C60.0721 92.7199 60.2088 92.4167 60.4209 92.1691L77.7773 71.9605C77.9231 71.7905 78.101 71.6509 78.3007 71.5497C78.5004 71.4485 78.7182 71.3875 78.9414 71.3705C79.1647 71.3534 79.3892 71.3804 79.602 71.4501C79.8148 71.5197 80.0118 71.6306 80.1818 71.7764C80.3518 71.9222 80.4914 72.1 80.5926 72.2998C80.6938 72.4995 80.7547 72.7172 80.7718 72.9405C80.7889 73.1638 80.7619 73.3883 80.6922 73.6011C80.6226 73.8139 80.5117 74.0109 80.3659 74.1809L63.0095 94.3872C62.8499 94.5742 62.6516 94.7242 62.4283 94.8271C62.2051 94.9299 61.9621 94.983 61.7163 94.9827Z" fill="#1A535C"/>
<path d="M72.5257 96.5644C72.1992 96.5656 71.8793 96.4728 71.6041 96.2973C71.3289 96.1217 71.1099 95.8706 70.9734 95.5741C70.8369 95.2776 70.7885 94.948 70.834 94.6248C70.8796 94.3015 71.0171 93.9981 71.2302 93.7508L80.9732 82.4057C81.2683 82.0659 81.6859 81.8566 82.1347 81.8236C82.5836 81.7905 83.0273 81.9363 83.369 82.2292C83.7108 82.522 83.9229 82.9381 83.959 83.3868C83.9951 83.8354 83.8523 84.2801 83.5617 84.6238L73.8256 95.9781C73.6641 96.1639 73.4643 96.3125 73.2399 96.4137C73.0155 96.5149 72.7718 96.5664 72.5257 96.5644Z" fill="#1A535C"/>
</g>
</svg>
